<?xml version="1.0" encoding="utf-8"?>
<!-- Generator: Adobe Illustrator 15.1.0, SVG Export Plug-In . SVG Version: 6.00 Build 0)  -->
<!DOCTYPE svg PUBLIC "-//W3C//DTD SVG 1.1//EN" "http://www.w3.org/Graphics/SVG/1.1/DTD/svg11.dtd">
<svg version="1.1" id="Layer_1" xmlns="http://www.w3.org/2000/svg" xmlns:xlink="http://www.w3.org/1999/xlink" x="0px" y="0px"
	 width="37.067px" height="37.065px" viewBox="0 0 37.067 37.065" enable-background="new 0 0 37.067 37.065" xml:space="preserve">
<path fill="#010101" d="M13.004,24.251c0,0.742,0.068,1.479,0.195,2.199h2.043c-0.148-0.72-0.227-1.457-0.227-2.199
	c0-5.006,3.453-9.236,7.54-9.236c4.089,0,7.541,4.23,7.541,9.236c0,0.742-0.079,1.479-0.229,2.199h2.044
	c0.128-0.721,0.196-1.457,0.196-2.199c0-6.063-4.285-10.996-9.552-10.996S13.004,18.188,13.004,24.251"/>
<path fill="#010101" d="M8.123,26.45c-0.755-1.465-1.151-3.121-1.151-4.838c0-5.007,3.453-9.237,7.541-9.237
	c1.227,0,2.447,0.393,3.549,1.133c0.645-0.343,1.326-0.614,2.034-0.804c-1.622-1.35-3.577-2.089-5.583-2.089
	c-5.267,0-9.552,4.934-9.552,10.998c0,1.678,0.341,3.342,0.979,4.838H8.123z"/>
<path fill="#010101" d="M22.555,15.894c-3.542,0-6.535,3.828-6.535,8.357c0,0.742,0.086,1.481,0.247,2.199h12.577
	c0.159-0.718,0.247-1.457,0.247-2.199C29.091,19.722,26.098,15.894,22.555,15.894 M28.083,23.333l-1.002,0.076
	c-0.023-0.244-0.058-0.482-0.102-0.716l0.993-0.142C28.02,22.806,28.057,23.068,28.083,23.333 M26.728,21.757
	c-0.727-2.339-2.664-4.104-4.173-4.104v-0.879c2.012,0,4.276,1.999,5.133,4.753L26.728,21.757z"/>
<path fill="#010101" d="M17.181,14.034c-0.85-0.509-1.761-0.78-2.669-0.78c-3.543,0-6.535,3.827-6.535,8.358
	c0,1.736,0.439,3.402,1.264,4.839h2.942c-0.121-0.723-0.185-1.46-0.185-2.2C11.998,19.909,14.081,16.106,17.181,14.034
	 M9.166,23.449c-0.062-0.308-0.11-0.623-0.139-0.94l1.001-0.073c0.028,0.288,0.071,0.577,0.128,0.858L9.166,23.449z M14.512,15.014
	c-2.093,0-4.524,2.882-4.524,6.598H8.982c0-4.408,2.914-7.478,5.53-7.478V15.014z"/>
</svg>
