<?xml version="1.0" encoding="iso-8859-1"?>
<!-- Generator: Adobe Illustrator 19.0.0, SVG Export Plug-In . SVG Version: 6.00 Build 0)  -->
<svg version="1.1" id="Capa_1" xmlns="http://www.w3.org/2000/svg" xmlns:xlink="http://www.w3.org/1999/xlink" x="0px" y="0px"
	 viewBox="0 0 512 512" style="enable-background:new 0 0 512 512;" xml:space="preserve">
<path style="fill:#57555C;" d="M347,135v32.999c0,8.401-6.599,15-15,15h-30c-8.401,0-15-6.599-15-15V135c0-24.901-20.099-45-45-45
	H77c-8.401,0-15-6.599-15-15V45c0-8.401,6.599-15,15-15h165c29.399,0,56.1,12.001,75,31.8C335.6,80.7,347,106.5,347,135z"/>
<path style="fill:#3C3A41;" d="M332,182.999h-15V61.8c18.6,18.9,30,44.7,30,73.2v32.999C347,176.4,340.401,182.999,332,182.999z"/>
<g>
	<path style="fill:#1DE8F1;" d="M197,422c-8.291,0-15-6.709-15-15v-60c0-8.291,6.709-15,15-15s15,6.709,15,15v60
		C212,415.291,205.291,422,197,422z"/>
	<path style="fill:#1DE8F1;" d="M257,512c-8.291,0-15-6.709-15-15v-60c0-8.291,6.709-15,15-15c8.291,0,15,6.709,15,15v60
		C272,505.291,265.291,512,257,512z"/>
	<path style="fill:#1DE8F1;" d="M197,512c-8.291,0-15-6.709-15-15v-30c0-8.291,6.709-15,15-15s15,6.709,15,15v30
		C212,505.291,205.291,512,197,512z"/>
	<path style="fill:#1DE8F1;" d="M257,392c-8.291,0-15-6.709-15-15v-30c0-8.291,6.709-15,15-15c8.291,0,15,6.709,15,15v30
		C272,385.291,265.291,392,257,392z"/>
	<path style="fill:#1DE8F1;" d="M332,467v30c0,8.401-6.599,15-15,15s-15-6.599-15-15v-30c0-8.401,6.599-15,15-15
		S332,458.599,332,467z"/>
</g>
<path style="fill:#1BD9DE;" d="M332,467v30c0,8.401-6.599,15-15,15v-60C325.401,452,332,458.599,332,467z"/>
<path style="fill:#1DE8F1;" d="M332,347v60c0,8.401-6.599,15-15,15s-15-6.599-15-15v-60c0-8.401,6.599-15,15-15S332,338.599,332,347
	z"/>
<g>
	<path style="fill:#1BD9DE;" d="M332,347v60c0,8.401-6.599,15-15,15v-90C325.401,332,332,338.599,332,347z"/>
	<path style="fill:#1BD9DE;" d="M437,422c-8.291,0-15-6.709-15-15v-60c0-8.291,6.709-15,15-15s15,6.709,15,15v60
		C452,415.291,445.291,422,437,422z"/>
	<path style="fill:#1BD9DE;" d="M437,512c-8.291,0-15-6.709-15-15v-30c0-8.291,6.709-15,15-15s15,6.709,15,15v30
		C452,505.291,445.291,512,437,512z"/>
	<path style="fill:#1BD9DE;" d="M377,512c-8.291,0-15-6.709-15-15v-60c0-8.291,6.709-15,15-15s15,6.709,15,15v60
		C392,505.291,385.291,512,377,512z"/>
	<path style="fill:#1BD9DE;" d="M377,392c-8.291,0-15-6.709-15-15v-30c0-8.291,6.709-15,15-15s15,6.709,15,15v30
		C392,385.291,385.291,392,377,392z"/>
</g>
<path style="fill:#A4D9F5;" d="M317,150c-90.901,0-165,76.099-165,167c0,24.901,20.099,45,45,45h240c24.901,0,45-20.099,45-45
	C482,226.099,407.901,150,317,150z"/>
<path style="fill:#81C8EE;" d="M482,317c0,24.901-20.099,45-45,45H317V150C407.901,150,482,226.099,482,317z"/>
<g>
	<path style="fill:#CAE8F9;" d="M62,120H15c-8.284,0-15-6.716-15-15V15C0,6.716,6.716,0,15,0h47c16.569,0,30,13.431,30,30v60
		C92,106.569,78.569,120,62,120z"/>
	<path style="fill:#CAE8F9;" d="M512,287c0,8.401-6.599,15-15,15H137c-8.401,0-15-6.599-15-15s6.599-15,15-15h360
		C505.401,272,512,278.599,512,287z"/>
</g>
<path style="fill:#B7E0F6;" d="M512,287c0,8.401-6.599,15-15,15H317v-30h180C505.401,272,512,278.599,512,287z"/>
<g>
</g>
<g>
</g>
<g>
</g>
<g>
</g>
<g>
</g>
<g>
</g>
<g>
</g>
<g>
</g>
<g>
</g>
<g>
</g>
<g>
</g>
<g>
</g>
<g>
</g>
<g>
</g>
<g>
</g>
</svg>
