<?xml version="1.0" encoding="iso-8859-1"?>
<!-- Generator: Adobe Illustrator 19.0.0, SVG Export Plug-In . SVG Version: 6.00 Build 0)  -->
<svg version="1.1" id="Capa_1" xmlns="http://www.w3.org/2000/svg" xmlns:xlink="http://www.w3.org/1999/xlink" x="0px" y="0px"
	 viewBox="0 0 468.293 468.293" style="enable-background:new 0 0 468.293 468.293;" xml:space="preserve">
<path style="fill:#64798A;" d="M468.293,106.775H0V44.336c0-6.897,5.591-12.488,12.488-12.488h443.317
	c6.897,0,12.488,5.591,12.488,12.488V106.775z"/>
<path style="fill:#EBF0F3;" d="M455.805,436.445H12.488C5.591,436.445,0,430.854,0,423.957V106.775h468.293v317.182
	C468.293,430.854,462.702,436.445,455.805,436.445z"/>
<rect x="24.976" y="131.753" style="fill:#27A2DB;" width="124.878" height="124.878"/>
<rect x="318.439" y="131.753" style="fill:#44C4A1;" width="124.878" height="124.878"/>
<rect x="171.707" y="131.753" style="fill:#E56353;" width="124.878" height="124.878"/>
<rect x="33.53" y="53.698" style="fill:#FCD462;" width="31.22" height="31.22"/>
<rect x="83.481" y="53.698" style="fill:#44C4A1;" width="31.22" height="31.22"/>
<rect x="133.432" y="53.698" style="fill:#E1E6E9;" width="31.22" height="31.22"/>
<path style="fill:#FCD462;" d="M295.925,356.167c0-35.425-29.817-63.886-65.723-61.656c-31.276,1.943-56.509,27.771-57.781,59.081
	c-0.814,20.031,7.918,38.05,22.015,49.891c6.399,5.375,9.923,13.431,9.923,21.788v11.173h59.576v-11.179
	c0-8.515,3.792-16.553,10.272-22.078C287.495,391.858,295.925,374.999,295.925,356.167z"/>
<g>
	<rect x="318.439" y="302.711" style="fill:#D5D6DB;" width="124.878" height="12.488"/>
	<rect x="318.439" y="340.174" style="fill:#D5D6DB;" width="124.878" height="12.488"/>
	<rect x="318.439" y="377.637" style="fill:#D5D6DB;" width="124.878" height="12.488"/>
	<rect x="24.976" y="302.711" style="fill:#D5D6DB;" width="124.878" height="12.488"/>
	<rect x="24.976" y="340.174" style="fill:#D5D6DB;" width="124.878" height="12.488"/>
	<rect x="24.976" y="377.637" style="fill:#D5D6DB;" width="124.878" height="12.488"/>
</g>
<g>
</g>
<g>
</g>
<g>
</g>
<g>
</g>
<g>
</g>
<g>
</g>
<g>
</g>
<g>
</g>
<g>
</g>
<g>
</g>
<g>
</g>
<g>
</g>
<g>
</g>
<g>
</g>
<g>
</g>
</svg>
